{
	"info": {
		"_postman_id": "28da0514-5b86-458b-933b-2343683b4b2b",
		"name": "Test",
		"schema": "https://schema.getpostman.com/json/collection/v2.1.0/collection.json",
		"_exporter_id": "30806772"
	},
	"item": [
		{
			"name": "Characters",
			"item": [
				{
					"name": "Get a Single Character",
					"event": [
						{
							"listen": "test",
							"script": {
								"exec": [
									"pm.test(\"Status code is 200\", function () {",
									"    pm.response.to.have.status(200);",
									"});",
									"",
									"pm.test(\"Probar algo\", function () {",
									"    var jsonData = pm.response.json();",
									"    pm.expect(jsonData.name).to.be.eq(\"Rick Sanchez\");",
									"});",
									"pm.test(\"Response time is less than 1000ms\", function () {",
									"    pm.expect(pm.response.responseTime).to.be.below(1000);",
									"});"
								],
								"type": "text/javascript"
							}
						}
					],
					"request": {
						"method": "GET",
						"header": [],
						"url": {
							"raw": "https://rickandmortyapi.com/api/character/1",
							"protocol": "https",
							"host": [
								"rickandmortyapi",
								"com"
							],
							"path": [
								"api",
								"character",
								"1"
							]
						}
					},
					"response": []
				}
			]
		}
	]
}